kill @e[type=minecraft:armor_stand,tag=path]
summon minecraft:armor_stand 110 2 67 {NoGravity:1,Marker:1,Invisible:1,Tags:["path","even"]}
summon minecraft:armor_stand 107 3 67 {NoGravity:1,Marker:1,Invisible:1,Tags:["path","odd"]}
summon minecraft:armor_stand 104 5 67 {NoGravity:1,Marker:1,Invisible:1,Tags:["path","even"]}
summon minecraft:armor_stand 101 6 67 {NoGravity:1,Marker:1,Invisible:1,Tags:["path","odd"]}
summon minecraft:armor_stand 98 8 67 {NoGravity:1,Marker:1,Invisible:1,Tags:["path","even"]}
summon minecraft:armor_stand 95 9 67 {NoGravity:1,Marker:1,Invisible:1,Tags:["path","odd"]}
summon minecraft:armor_stand 92 11 67 {NoGravity:1,Marker:1,Invisible:1,Tags:["path","even"]}
summon minecraft:armor_stand 89 11 67 {NoGravity:1,Marker:1,Invisible:1,Tags:["path","ice","transition"]}
function pathmaker:starticepath

