kill @e[tag=pathmaker]
summon minecraft:armor_stand 89 11 70 {NoGravity:1,Marker:1,Invisible:1,Tags:["pathmaker"]}
scoreboard players set @e[tag=pathmaker] IcePathLength 100
function pathmaker:loadicepath
